factors
…
# Convert character to factor, specify the order
mpg %>% 
  mutate(drv = fct_relevel(drv, c("f", "r", "4"))) %>% 
  arrange(drv)
#> # A tibble: 234 × 11
#>    manufacturer model  displ  year   cyl trans     drv     cty   hwy fl    class
#>    <chr>        <chr>  <dbl> <int> <int> <chr>     <fct> <int> <int> <chr> <chr>
#>  1 audi         a4       1.8  1999     4 auto(l5)  f        18    29 p     comp…
#>  2 audi         a4       1.8  1999     4 manual(m… f        21    29 p     comp…
#>  3 audi         a4       2    2008     4 manual(m… f        20    31 p     comp…
#>  4 audi         a4       2    2008     4 auto(av)  f        21    30 p     comp…
#>  5 audi         a4       2.8  1999     6 auto(l5)  f        16    26 p     comp…
#>  6 audi         a4       2.8  1999     6 manual(m… f        18    26 p     comp…
#>  7 audi         a4       3.1  2008     6 auto(av)  f        18    27 p     comp…
#>  8 chevrolet    malibu   2.4  1999     4 auto(l4)  f        19    27 r     mids…
#>  9 chevrolet    malibu   2.4  2008     4 auto(l4)  f        22    30 r     mids…
#> 10 chevrolet    malibu   3.1  1999     6 auto(l4)  f        18    26 r     mids…
#> # ℹ 224 more rows

# drvtype %>% 
#   fct_relevel(., c("f", "r", "4")) %>% 
#   fct_rev()

# We use fct_rev() to reverse the order of the levels
mpg %>% 
  mutate(
    drv = drv %>% 
      fct_relevel(., c("f", "r", "4")) %>% 
      fct_rev()
  ) %>% 
  arrange(drv)
#> # A tibble: 234 × 11
#>    manufacturer model      displ  year   cyl trans drv     cty   hwy fl    class
#>    <chr>        <chr>      <dbl> <int> <int> <chr> <fct> <int> <int> <chr> <chr>
#>  1 audi         a4 quattro   1.8  1999     4 manu… 4        18    26 p     comp…
#>  2 audi         a4 quattro   1.8  1999     4 auto… 4        16    25 p     comp…
#>  3 audi         a4 quattro   2    2008     4 manu… 4        20    28 p     comp…
#>  4 audi         a4 quattro   2    2008     4 auto… 4        19    27 p     comp…
#>  5 audi         a4 quattro   2.8  1999     6 auto… 4        15    25 p     comp…
#>  6 audi         a4 quattro   2.8  1999     6 manu… 4        17    25 p     comp…
#>  7 audi         a4 quattro   3.1  2008     6 auto… 4        17    25 p     comp…
#>  8 audi         a4 quattro   3.1  2008     6 manu… 4        15    25 p     comp…
#>  9 audi         a6 quattro   2.8  1999     6 auto… 4        15    24 p     mids…
#> 10 audi         a6 quattro   3.1  2008     6 auto… 4        17    25 p     mids…
#> # ℹ 224 more rows
…
