quiz16
…
airline_safety is another data frame in fivethirtyeight package containing information on different airline companies’ safety records.

This data was originally reported on the data journalism website, FiveThirtyEight.com, in Nate Silver’s article, “Should Travelers Avoid Flying Airlines That Have Had Crashes in the Past?”.

[2 pts] Create the tibble df_fatalities with the columns: airline, and all columns starts with fatalities. [Hint: You may use start_with("fatalities").]

[2 pts] Convert df_fatalities to tidy format as shown below and save the tidy tibble as df_fatalities_tidy. In this process, you need to

Lengthens the data, so that the new column fatalities_year storing the values fatalities_85_99 or fatalities_00_14, and the new column count storing the cell values.

Use Seperate_wider_position() to remove the fatalities_ in the fatalities_year column. And the resulting column is named year.

Make the year column a factor with levels year_level = c("85_99", "00_14")

#> # A tibble: 112 × 3
#>    airline               year  count
#>    <chr>                 <fct> <int>
#>  1 Aer Lingus            85_99     0
#>  2 Aer Lingus            00_14     0
#>  3 Aeroflot              85_99   128
#>  4 Aeroflot              00_14    88
#>  5 Aerolineas Argentinas 85_99     0
#>  6 Aerolineas Argentinas 00_14     0
#>  7 Aeromexico            85_99    64
#>  8 Aeromexico            00_14     0
#>  9 Air Canada            85_99     0
#> 10 Air Canada            00_14     0
#> # ℹ 102 more rows
…
