datestime
…
yday(datetime)
#> [1] 189
wday(datetime)
#> [1] 4
wday(datetime, label = TRUE)
#> [1] Wed
#> Levels: Sun < Mon < Tue < Wed < Thu < Fri < Sat

make_datetime()

flights %>% 
  select(year, month, day, hour, minute) %>% 
  mutate(departure = make_datetime(year, month, day, hour, minute)) %>% 
  print(width = Inf)
#> # A tibble: 336,776 × 6
#>     year month   day  hour minute departure          
#>    <int> <int> <int> <dbl>  <dbl> <dttm>             
#>  1  2013     1     1     5     15 2013-01-01 05:15:00
#>  2  2013     1     1     5     29 2013-01-01 05:29:00
#>  3  2013     1     1     5     40 2013-01-01 05:40:00
#>  4  2013     1     1     5     45 2013-01-01 05:45:00
#>  5  2013     1     1     6      0 2013-01-01 06:00:00
#>  6  2013     1     1     5     58 2013-01-01 05:58:00
#>  7  2013     1     1     6      0 2013-01-01 06:00:00
#>  8  2013     1     1     6      0 2013-01-01 06:00:00
#>  9  2013     1     1     6      0 2013-01-01 06:00:00
#> 10  2013     1     1     6      0 2013-01-01 06:00:00
#> # ℹ 336,766 more rows
…
Duration

flights_dt %>% 
  mutate(ds_diff = as.duration(dep_time - sched_dep_time)) %>% 
  arrange(desc(ds_diff)) 
#> # A tibble: 328,063 × 20
#>     year month   day dep_time            sched_dep_time      dep_delay arr_time
#>    <int> <int> <int> <dttm>              <dttm>                  <dbl>    <int>
#>  1  2013     3    17 2013-03-17 23:21:00 2013-03-17 08:10:00       911      135
#>  2  2013     7    22 2013-07-22 22:57:00 2013-07-22 07:59:00       898      121
#>  3  2013     2    10 2013-02-10 22:43:00 2013-02-10 08:30:00       853      100
#>  4  2013     2    19 2013-02-19 23:24:00 2013-02-19 10:16:00       788      114
#>  5  2013     2    24 2013-02-24 19:21:00 2013-02-24 06:15:00       786     2135
#>  6  2013    10    14 2013-10-14 20:42:00 2013-10-14 09:00:00       702     2255
#>  7  2013     7     7 2013-07-07 21:23:00 2013-07-07 10:30:00       653       17
#>  8  2013    11    24 2013-11-24 23:01:00 2013-11-24 12:25:00       636      149
#>  9  2013     7     7 2013-07-07 20:59:00 2013-07-07 10:30:00       629      106
#> 10  2013     6     5 2013-06-05 20:28:00 2013-06-05 10:15:00       613     2308
#> # ℹ 328,053 more rows
#> # ℹ 13 more variables: sched_arr_time <int>, arr_delay <dbl>, carrier <chr>,
#> #   flight <int>, tailnum <chr>, origin <chr>, dest <chr>, air_time <dbl>,
#> #   distance <dbl>, hour <dbl>, minute <dbl>, time_hour <dttm>,
#> #   ds_diff <Duration>
…
