dplyr
…
select(df, -c(var1, var2))

Select every column

select(df, everything())

select(df, var7, everything()) – Place var7 first, followed by all other variables

Example 1

Let’s use the mpg tibble in ggplot2. Please use help(mpg) for the variable definitions.

library(tidyverse)
mpg
#> # A tibble: 234 × 11
#>    manufacturer model      displ  year   cyl trans drv     cty   hwy fl    class
#>    <chr>        <chr>      <dbl> <int> <int> <chr> <chr> <int> <int> <chr> <chr>
#>  1 audi         a4           1.8  1999     4 auto… f        18    29 p     comp…
#>  2 audi         a4           1.8  1999     4 manu… f        21    29 p     comp…
#>  3 audi         a4           2    2008     4 manu… f        20    31 p     comp…
#>  4 audi         a4           2    2008     4 auto… f        21    30 p     comp…
#>  5 audi         a4           2.8  1999     6 auto… f        16    26 p     comp…
#>  6 audi         a4           2.8  1999     6 manu… f        18    26 p     comp…
#>  7 audi         a4           3.1  2008     6 auto… f        18    27 p     comp…
#>  8 audi         a4 quattro   1.8  1999     4 manu… 4        18    26 p     comp…
#>  9 audi         a4 quattro   1.8  1999     4 auto… 4        16    25 p     comp…
#> 10 audi         a4 quattro   2    2008     4 manu… 4        20    28 p     comp…
#> # ℹ 224 more rows
…
Example 2

List the distinct model names (using the variable model) in the mpg tibble.

mpg %>% 
  dplyr::select(model) %>% 
  distinct()
#> # A tibble: 38 × 1
#>    model             
#>    <chr>             
#>  1 a4                
#>  2 a4 quattro        
#>  3 a6 quattro        
#>  4 c1500 suburban 2wd
#>  5 corvette          
#>  6 k1500 tahoe 4wd   
#>  7 malibu            
#>  8 caravan 2wd       
#>  9 dakota pickup 4wd 
#> 10 durango 4wd       
#> # ℹ 28 more rows
…
Example 9. Sort the data by multiple variables

From the mpg1 tibble, create a tibble that satisfies:

the manufacture is toyota,

select variables class, year, displ only,

sort the tibble depend on class, year, and displ, where class and year are in ascending order, displ is in descending order.

mpg1 %>% filter(manufacturer == "toyota") %>% 
  dplyr::select(class, year, displ) %>% 
  arrange(class, year, desc(displ)) %>% 
  print(n=15) ### Print 15 rows
#> # A tibble: 34 × 3
#>    class    year displ
#>    <chr>   <int> <dbl>
#>  1 compact  1999   3  
#>  2 compact  1999   3  
#>  3 compact  1999   2.2
#>  4 compact  1999   2.2
#>  5 compact  1999   1.8
#>  6 compact  1999   1.8
#>  7 compact  1999   1.8
#>  8 compact  2008   3.3
#>  9 compact  2008   2.4
#> 10 compact  2008   2.4
#> 11 compact  2008   1.8
#> 12 compact  2008   1.8
#> 13 midsize  1999   3  
#> 14 midsize  1999   3  
#> 15 midsize  1999   2.2
#> # ℹ 19 more rows
…
–>    

mutate()

Use mutate() to add new variables and preserves existing ones.

Example 10

Please create a new column combined_mpg in mpg using the formula of

combined_mpg = 0.55 * cty + 0.45 * hwy

mpg %>% mutate(combined_mpg = 0.55*cty + 0.45*hwy) %>% 
  print(width = Inf) ## use print(width = Inf) to display all the columns
#> # A tibble: 234 × 12
#>    manufacturer model      displ  year   cyl trans      drv     cty   hwy fl   
#>    <chr>        <chr>      <dbl> <int> <int> <chr>      <chr> <int> <int> <chr>
#>  1 audi         a4           1.8  1999     4 auto(l5)   f        18    29 p    
#>  2 audi         a4           1.8  1999     4 manual(m5) f        21    29 p    
#>  3 audi         a4           2    2008     4 manual(m6) f        20    31 p    
#>  4 audi         a4           2    2008     4 auto(av)   f        21    30 p    
#>  5 audi         a4           2.8  1999     6 auto(l5)   f        16    26 p    
#>  6 audi         a4           2.8  1999     6 manual(m5) f        18    26 p    
#>  7 audi         a4           3.1  2008     6 auto(av)   f        18    27 p    
#>  8 audi         a4 quattro   1.8  1999     4 manual(m5) 4        18    26 p    
#>  9 audi         a4 quattro   1.8  1999     4 auto(l5)   4        16    25 p    
#> 10 audi         a4 quattro   2    2008     4 manual(m6) 4        20    28 p    
#>    class   combined_mpg
#>    <chr>          <dbl>
#>  1 compact         23.0
#>  2 compact         24.6
#>  3 compact         25.0
#>  4 compact         25.0
#>  5 compact         20.5
#>  6 compact         21.6
#>  7 compact         22.0
#>  8 compact         21.6
#>  9 compact         20.0
#> 10 compact         23.6
#> # ℹ 224 more rows
…
str_split("auto(l5)", "\\(")[[1]]
#> [1] "auto" "l5)"

str_split("auto(l5)", "\\(")[[1]][1]
#> [1] "auto"

Example 11.2 code – illustration of rowwise()

If rowwise() is not used,

mpg %>% 
  mutate(trans_type = str_split(trans, "\\(")[[1]][1]) %>% 
  dplyr::select(trans_type, trans)
#> # A tibble: 234 × 2
#>    trans_type trans     
#>    <chr>      <chr>     
#>  1 auto       auto(l5)  
#>  2 auto       manual(m5)
#>  3 auto       manual(m6)
#>  4 auto       auto(av)  
#>  5 auto       auto(l5)  
#>  6 auto       manual(m5)
#>  7 auto       auto(av)  
#>  8 auto       manual(m5)
#>  9 auto       auto(l5)  
#> 10 auto       manual(m6)
#> # ℹ 224 more rows
…
